<?xml version="1.0" encoding="utf-8"?>
<!-- Generator: Adobe Illustrator 16.0.4, SVG Export Plug-In . SVG Version: 6.00 Build 0)  -->
<!DOCTYPE svg PUBLIC "-//W3C//DTD SVG 1.1//EN" "http://www.w3.org/Graphics/SVG/1.1/DTD/svg11.dtd">
<svg version="1.1" id="Layer_1" xmlns="http://www.w3.org/2000/svg" xmlns:xlink="http://www.w3.org/1999/xlink" x="0px" y="0px"
	 width="252.819px" height="221.723px" viewBox="0 0 252.819 221.723" enable-background="new 0 0 252.819 221.723"
	 xml:space="preserve">
<g opacity="0.1">
	<polygon fill="#FFFFFF" points="0,0 81.873,110.802 0,221.723 57.545,221.723 139.417,110.802 57.545,0 	"/>
	<polygon fill="#FFFFFF" points="113.43,0 195.305,110.802 113.43,221.723 170.962,221.723 252.819,110.802 170.962,0 	"/>
</g>
</svg>
